Design Route Status
                                               :      # nets :
   ------------------------------------------- : ----------- :
   # of logical nets.......................... :        2110 :
       # of nets not needing routing.......... :         714 :
           # of internally routed nets........ :         682 :
           # of nets with no loads............ :          32 :
       # of routable nets..................... :        1396 :
           # of fully routed nets............. :        1396 :
       # of nets with routing errors.......... :           0 :
   ------------------------------------------- : ----------- :

