# compile verilog/system verilog design source files
verilog xil_defaultlib  \
"../../../../../../../../inicio-ie424/src/picorv32/picorv32.v" \
"../../../../../../../seven_segment_controller.v" \
"../../../../../../../../inicio-ie424/src/verilog/system.v" \
"../../../../../../../../inicio-ie424/src/verilog/system_tb.v" \

# compile glbl module
verilog xil_defaultlib "glbl.v"

# Do not sort compile order
nosort
